<?xml version="1.0" encoding="UTF-8" standalone="no"?>
<!-- Created with Inkscape (http://www.inkscape.org/) -->

<svg
   width="100mm"
   height="100mm"
   viewBox="0 0 100 100"
   version="1.1"
   id="svg5"
   xml:space="preserve"
   inkscape:version="1.2.2 (1:1.2.2+202305151914+b0a8486541)"
   sodipodi:docname="icon.svg"
   xmlns:inkscape="http://www.inkscape.org/namespaces/inkscape"
   xmlns:sodipodi="http://sodipodi.sourceforge.net/DTD/sodipodi-0.dtd"
   xmlns="http://www.w3.org/2000/svg"
   xmlns:svg="http://www.w3.org/2000/svg"><sodipodi:namedview
     id="namedview7"
     pagecolor="#ffffff"
     bordercolor="#666666"
     borderopacity="1.0"
     inkscape:showpageshadow="2"
     inkscape:pageopacity="0.0"
     inkscape:pagecheckerboard="0"
     inkscape:deskcolor="#d1d1d1"
     inkscape:document-units="mm"
     showgrid="false"
     inkscape:zoom="0.18314528"
     inkscape:cx="379.48016"
     inkscape:cy="294.84789"
     inkscape:window-width="1788"
     inkscape:window-height="1042"
     inkscape:window-x="131"
     inkscape:window-y="1"
     inkscape:window-maximized="1"
     inkscape:current-layer="layer1" /><defs
     id="defs2"><marker
       style="overflow:visible"
       id="Arrow5"
       refX="0"
       refY="0"
       orient="auto-start-reverse"
       inkscape:stockid="Arrow5"
       markerWidth="5.8874264"
       markerHeight="6.6094756"
       viewBox="0 0 5.8874262 6.6094758"
       inkscape:isstock="true"
       inkscape:collect="always"
       preserveAspectRatio="xMidYMid"><path
         transform="scale(0.5)"
         style="fill:context-stroke;fill-rule:evenodd;stroke:context-stroke;stroke-width:1pt"
         d="m 6,0 c -3,1 -7,3 -9,5 0,0 0,-4 2,-5 -2,-1 -2,-5 -2,-5 2,2 6,4 9,5 z"
         id="path8893" /></marker><inkscape:path-effect
       effect="tiling"
       id="path-effect366"
       is_visible="true"
       lpeversion="1"
       unit="px"
       seed="1;1"
       lpesatellites=""
       num_rows="6"
       num_cols="6"
       gapx="16"
       gapy="16"
       offset="46"
       offset_type="false"
       scale="0"
       rotate="0"
       mirrorrowsx="false"
       mirrorrowsy="false"
       mirrorcolsx="false"
       mirrorcolsy="false"
       mirrortrans="false"
       shrink_interp="false"
       split_items="false"
       link_styles="false"
       interpolate_scalex="false"
       interpolate_scaley="true"
       interpolate_rotatex="false"
       interpolate_rotatey="true"
       random_scale="false"
       random_rotate="false"
       random_gap_y="false"
       random_gap_x="false"
       transformorigin="" /></defs><g
     inkscape:label="Layer 1"
     inkscape:groupmode="layer"
     id="layer1"><rect
       style="vector-effect:non-scaling-stroke;fill:#9b00db;stroke:none;stroke-width:0.264583;stroke-linecap:round;stroke-miterlimit:3.7;-inkscape-stroke:hairline;paint-order:markers stroke fill;fill-opacity:1"
       id="rect263"
       width="57.336308"
       height="61.106918"
       x="21.331846"
       y="34.263222"
       ry="6.271781" /><path
       style="vector-effect:non-scaling-stroke;fill:#ffffff;stroke:#ffffff;stroke-width:0.264583;stroke-linecap:round;stroke-miterlimit:3.7;-inkscape-stroke:hairline;paint-order:markers stroke fill"
       id="path364"
       inkscape:path-effect="#path-effect366"
       sodipodi:type="arc"
       sodipodi:cx="31.279486"
       sodipodi:cy="42.47583"
       sodipodi:rx="1.8318576"
       sodipodi:ry="1.8318576"
       d="m 33.111343,42.47583 c 0,1.011707 -0.82015,1.831858 -1.831857,1.831858 -1.011707,0 -1.831858,-0.820151 -1.831858,-1.831858 0,-1.011707 0.820151,-1.831857 1.831858,-1.831857 1.011707,0 1.831857,0.82015 1.831857,1.831857 z m 7.897049,0 c 0,1.011707 -0.820151,1.831858 -1.831858,1.831858 -1.011707,0 -1.831857,-0.820151 -1.831857,-1.831858 0,-1.011707 0.82015,-1.831857 1.831857,-1.831857 1.011707,0 1.831858,0.82015 1.831858,1.831857 z m 7.897048,0 c 0,1.011707 -0.82015,1.831858 -1.831857,1.831858 -1.011707,0 -1.831858,-0.820151 -1.831858,-1.831858 0,-1.011707 0.820151,-1.831857 1.831858,-1.831857 1.011707,0 1.831857,0.82015 1.831857,1.831857 z m 7.897049,0 c 0,1.011707 -0.820151,1.831858 -1.831858,1.831858 -1.011707,0 -1.831857,-0.820151 -1.831857,-1.831858 0,-1.011707 0.82015,-1.831857 1.831857,-1.831857 1.011707,0 1.831858,0.82015 1.831858,1.831857 z m 7.897048,0 c 0,1.011707 -0.82015,1.831858 -1.831857,1.831858 -1.011707,0 -1.831858,-0.820151 -1.831858,-1.831858 0,-1.011707 0.820151,-1.831857 1.831858,-1.831857 1.011707,0 1.831857,0.82015 1.831857,1.831857 z m 7.897049,0 c 0,1.011707 -0.820151,1.831858 -1.831858,1.831858 -1.011707,0 -1.831858,-0.820151 -1.831858,-1.831858 0,-1.011707 0.820151,-1.831857 1.831858,-1.831857 1.011707,0 1.831858,0.82015 1.831858,1.831857 z m -35.8526,7.897049 c 0,1.011707 -0.820151,1.831857 -1.831858,1.831857 -1.011707,0 -1.831858,-0.82015 -1.831858,-1.831857 0,-1.011707 0.820151,-1.831858 1.831858,-1.831858 1.011707,0 1.831858,0.820151 1.831858,1.831858 z m 7.897048,0 c 0,1.011707 -0.820151,1.831857 -1.831858,1.831857 -1.011707,0 -1.831857,-0.82015 -1.831857,-1.831857 0,-1.011707 0.82015,-1.831858 1.831857,-1.831858 1.011707,0 1.831858,0.820151 1.831858,1.831858 z m 7.897048,0 c 0,1.011707 -0.82015,1.831857 -1.831857,1.831857 -1.011707,0 -1.831858,-0.82015 -1.831858,-1.831857 0,-1.011707 0.820151,-1.831858 1.831858,-1.831858 1.011707,0 1.831857,0.820151 1.831857,1.831858 z m 7.897049,0 c 0,1.011707 -0.820151,1.831857 -1.831858,1.831857 -1.011707,0 -1.831857,-0.82015 -1.831857,-1.831857 0,-1.011707 0.82015,-1.831858 1.831857,-1.831858 1.011707,0 1.831858,0.820151 1.831858,1.831858 z m 7.897048,0 c 0,1.011707 -0.82015,1.831857 -1.831857,1.831857 -1.011707,0 -1.831858,-0.82015 -1.831858,-1.831857 0,-1.011707 0.820151,-1.831858 1.831858,-1.831858 1.011707,0 1.831857,0.820151 1.831857,1.831858 z m 7.897049,0 c 0,1.011707 -0.820151,1.831857 -1.831858,1.831857 -1.011707,0 -1.831857,-0.82015 -1.831857,-1.831857 0,-1.011707 0.82015,-1.831858 1.831857,-1.831858 1.011707,0 1.831858,0.820151 1.831858,1.831858 z m -43.117885,7.897048 c 0,1.011707 -0.82015,1.831858 -1.831857,1.831858 -1.011707,0 -1.831858,-0.820151 -1.831858,-1.831858 0,-1.011707 0.820151,-1.831858 1.831858,-1.831858 1.011707,0 1.831857,0.820151 1.831857,1.831858 z m 7.897049,0 c 0,1.011707 -0.820151,1.831858 -1.831858,1.831858 -1.011707,0 -1.831857,-0.820151 -1.831857,-1.831858 0,-1.011707 0.82015,-1.831858 1.831857,-1.831858 1.011707,0 1.831858,0.820151 1.831858,1.831858 z m 7.897048,0 c 0,1.011707 -0.82015,1.831858 -1.831857,1.831858 -1.011707,0 -1.831858,-0.820151 -1.831858,-1.831858 0,-1.011707 0.820151,-1.831858 1.831858,-1.831858 1.011707,0 1.831857,0.820151 1.831857,1.831858 z m 7.897049,0 c 0,1.011707 -0.820151,1.831858 -1.831858,1.831858 -1.011707,0 -1.831857,-0.820151 -1.831857,-1.831858 0,-1.011707 0.82015,-1.831858 1.831857,-1.831858 1.011707,0 1.831858,0.820151 1.831858,1.831858 z m 7.897048,0 c 0,1.011707 -0.82015,1.831858 -1.831857,1.831858 -1.011707,0 -1.831858,-0.820151 -1.831858,-1.831858 0,-1.011707 0.820151,-1.831858 1.831858,-1.831858 1.011707,0 1.831857,0.820151 1.831857,1.831858 z m 7.897049,0 c 0,1.011707 -0.820151,1.831858 -1.831858,1.831858 -1.011707,0 -1.831858,-0.820151 -1.831858,-1.831858 0,-1.011707 0.820151,-1.831858 1.831858,-1.831858 1.011707,0 1.831858,0.820151 1.831858,1.831858 z m -35.8526,7.897048 c 0,1.011707 -0.820151,1.831858 -1.831858,1.831858 -1.011707,0 -1.831858,-0.820151 -1.831858,-1.831858 0,-1.011707 0.820151,-1.831857 1.831858,-1.831857 1.011707,0 1.831858,0.82015 1.831858,1.831857 z m 7.897048,0 c 0,1.011707 -0.820151,1.831858 -1.831858,1.831858 -1.011707,0 -1.831857,-0.820151 -1.831857,-1.831858 0,-1.011707 0.82015,-1.831857 1.831857,-1.831857 1.011707,0 1.831858,0.82015 1.831858,1.831857 z m 7.897048,0 c 0,1.011707 -0.82015,1.831858 -1.831857,1.831858 -1.011707,0 -1.831858,-0.820151 -1.831858,-1.831858 0,-1.011707 0.820151,-1.831857 1.831858,-1.831857 1.011707,0 1.831857,0.82015 1.831857,1.831857 z m 7.897049,0 c 0,1.011707 -0.820151,1.831858 -1.831858,1.831858 -1.011707,0 -1.831857,-0.820151 -1.831857,-1.831858 0,-1.011707 0.82015,-1.831857 1.831857,-1.831857 1.011707,0 1.831858,0.82015 1.831858,1.831857 z m 7.897048,0 c 0,1.011707 -0.82015,1.831858 -1.831857,1.831858 -1.011707,0 -1.831858,-0.820151 -1.831858,-1.831858 0,-1.011707 0.820151,-1.831857 1.831858,-1.831857 1.011707,0 1.831857,0.82015 1.831857,1.831857 z m 7.897049,0 c 0,1.011707 -0.820151,1.831858 -1.831858,1.831858 -1.011707,0 -1.831857,-0.820151 -1.831857,-1.831858 0,-1.011707 0.82015,-1.831857 1.831857,-1.831857 1.011707,0 1.831858,0.82015 1.831858,1.831857 z m -43.117885,7.897049 c 0,1.011707 -0.82015,1.831857 -1.831857,1.831857 -1.011707,0 -1.831858,-0.82015 -1.831858,-1.831857 0,-1.011707 0.820151,-1.831858 1.831858,-1.831858 1.011707,0 1.831857,0.820151 1.831857,1.831858 z m 7.897049,0 c 0,1.011707 -0.820151,1.831857 -1.831858,1.831857 -1.011707,0 -1.831857,-0.82015 -1.831857,-1.831857 0,-1.011707 0.82015,-1.831858 1.831857,-1.831858 1.011707,0 1.831858,0.820151 1.831858,1.831858 z m 7.897048,0 c 0,1.011707 -0.82015,1.831857 -1.831857,1.831857 -1.011707,0 -1.831858,-0.82015 -1.831858,-1.831857 0,-1.011707 0.820151,-1.831858 1.831858,-1.831858 1.011707,0 1.831857,0.820151 1.831857,1.831858 z m 7.897049,0 c 0,1.011707 -0.820151,1.831857 -1.831858,1.831857 -1.011707,0 -1.831857,-0.82015 -1.831857,-1.831857 0,-1.011707 0.82015,-1.831858 1.831857,-1.831858 1.011707,0 1.831858,0.820151 1.831858,1.831858 z m 7.897048,0 c 0,1.011707 -0.82015,1.831857 -1.831857,1.831857 -1.011707,0 -1.831858,-0.82015 -1.831858,-1.831857 0,-1.011707 0.820151,-1.831858 1.831858,-1.831858 1.011707,0 1.831857,0.820151 1.831857,1.831858 z m 7.897049,0 c 0,1.011707 -0.820151,1.831857 -1.831858,1.831857 -1.011707,0 -1.831858,-0.82015 -1.831858,-1.831857 0,-1.011707 0.820151,-1.831858 1.831858,-1.831858 1.011707,0 1.831858,0.820151 1.831858,1.831858 z m -35.8526,7.897048 c 0,1.011707 -0.820151,1.831858 -1.831858,1.831858 -1.011707,0 -1.831858,-0.820151 -1.831858,-1.831858 0,-1.011707 0.820151,-1.831857 1.831858,-1.831857 1.011707,0 1.831858,0.82015 1.831858,1.831857 z m 7.897048,0 c 0,1.011707 -0.820151,1.831858 -1.831858,1.831858 -1.011707,0 -1.831857,-0.820151 -1.831857,-1.831858 0,-1.011707 0.82015,-1.831857 1.831857,-1.831857 1.011707,0 1.831858,0.82015 1.831858,1.831857 z m 7.897048,0 c 0,1.011707 -0.82015,1.831858 -1.831857,1.831858 -1.011707,0 -1.831858,-0.820151 -1.831858,-1.831858 0,-1.011707 0.820151,-1.831857 1.831858,-1.831857 1.011707,0 1.831857,0.82015 1.831857,1.831857 z m 7.897049,0 c 0,1.011707 -0.820151,1.831858 -1.831858,1.831858 -1.011707,0 -1.831857,-0.820151 -1.831857,-1.831858 0,-1.011707 0.82015,-1.831857 1.831857,-1.831857 1.011707,0 1.831858,0.82015 1.831858,1.831857 z m 7.897048,0 c 0,1.011707 -0.82015,1.831858 -1.831857,1.831858 -1.011707,0 -1.831858,-0.820151 -1.831858,-1.831858 0,-1.011707 0.820151,-1.831857 1.831858,-1.831857 1.011707,0 1.831857,0.82015 1.831857,1.831857 z m 7.897049,0 c 0,1.011707 -0.820151,1.831858 -1.831858,1.831858 -1.011707,0 -1.831857,-0.820151 -1.831857,-1.831858 0,-1.011707 0.82015,-1.831857 1.831857,-1.831857 1.011707,0 1.831858,0.82015 1.831858,1.831857 z"
       class="UnoptimicedTransforms"
       transform="translate(-4.5920283,2.2822456)" /><g
       id="g518"
       transform="matrix(3.1373875,0,0,3.1373875,-82.050187,-12.40993)"
       style="fill:#00ff00"><path
         style="fill:#00ff00;stroke-width:0.0119215"
         d="m 37.737485,8.1543803 c 0.116901,-0.02185 0.220935,-0.08291 0.368867,-0.216592 0.532619,-0.481328 1.042311,-0.814944 1.643005,-1.075418 0.823321,-0.357012 1.729633,-0.520886 2.622015,-0.474101 0.580032,0.0304 1.048602,0.116469 1.565304,0.287455 0.275136,0.09106 0.473427,0.173894 0.7749,0.323722 0.480907,0.239007 0.936718,0.552439 1.329251,0.914031 0.195283,0.179882 0.327585,0.248231 0.49148,0.253923 0.218749,0.0076 0.436496,-0.10719 0.543165,-0.28625 0.07822,-0.131303 0.12394,-0.333818 0.0923,-0.4088 -0.0065,-0.0151 -0.01996,-0.05732 -0.03005,-0.09389 -0.04154,-0.149349 -0.165452,-0.286624 -0.538815,-0.597006 -1.027039,-0.853782 -2.301981,-1.4068169 -3.621918,-1.5710814 -0.348977,-0.043426 -0.521449,-0.053892 -0.888153,-0.053892 -0.366879,0 -0.539662,0.010519 -0.888153,0.053946 -1.133499,0.1413107 -2.225564,0.5616149 -3.161244,1.2166854 -0.34742,0.243241 -0.777864,0.605491 -0.891854,0.750581 -0.06519,0.08297 -0.117682,0.201918 -0.136374,0.309006 -0.0431,0.246801 0.133299,0.54049 0.384031,0.639342 0.07005,0.02762 0.219963,0.05349 0.258804,0.04467 0.0097,-0.0022 0.04739,-0.0097 0.08345,-0.01618 z"
         id="path508" /><path
         style="fill:#00ff00;stroke-width:0.0119215"
         d="m 37.505006,8.1895803 c -0.349155,-0.05516 -0.593256,-0.419009 -0.51305,-0.764747 0.04604,-0.198547 0.150131,-0.324213 0.534472,-0.645376 0.604176,-0.504872 1.276495,-0.9024303 1.999278,-1.1822222 0.173867,-0.067297 0.514445,-0.178641 0.673566,-0.2202062 0.07868,-0.020499 0.159139,-0.041862 0.178829,-0.047337 0.01969,-0.00539 0.06795,-0.016453 0.107298,-0.024545 0.03935,-0.00809 0.08763,-0.01942 0.107298,-0.025085 0.03113,-0.0089 0.151642,-0.031073 0.38675,-0.070804 0.104142,-0.017532 0.340802,-0.04669 0.495443,-0.060905 0.220853,-0.02023 0.9039,-0.026973 1.084858,-0.010519 0.265332,0.024006 0.485581,0.04758 0.566273,0.060473 0.194393,0.031073 0.41396,0.070588 0.45898,0.082618 0.01969,0.00512 0.06794,0.016184 0.107298,0.024545 0.293678,0.061201 0.89467,0.2552439 1.14828,0.3707686 0.04143,0.018881 0.07752,0.034309 0.08016,0.034309 0.02131,0 0.49664,0.2358498 0.640195,0.3176288 0.184278,0.104978 0.372333,0.221744 0.521619,0.323874 0.439873,0.300944 0.924068,0.715778 1.020234,0.874084 0.131466,0.21643 0.132032,0.447978 0.0016,0.669582 -0.05422,0.09214 -0.135916,0.169254 -0.243241,0.229539 -0.09535,0.05357 -0.173867,0.07107 -0.313686,0.06986 -0.192397,-0.0017 -0.3109,-0.05891 -0.524546,-0.253437 -0.697712,-0.635297 -1.496361,-1.077262 -2.396226,-1.326046 -0.283482,-0.07838 -0.605068,-0.139424 -0.906037,-0.172006 -0.404916,-0.04383 -0.899298,-0.04157 -1.311368,0.0059 -0.114742,0.01322 -0.21937,0.02643 -0.232478,0.0291 -0.01322,0.0027 -0.05872,0.01133 -0.101337,0.01888 -0.04262,0.0076 -0.128445,0.02482 -0.190752,0.03806 -0.06228,0.01322 -0.126665,0.0267 -0.143064,0.03007 -0.06069,0.01214 -0.332305,0.08942 -0.4709,0.13419 -0.250901,0.08105 -0.456067,0.163968 -0.70928,0.286662 -0.537612,0.260477 -0.954858,0.543017 -1.40679,0.952597 -0.179936,0.163078 -0.266977,0.215351 -0.407266,0.244616 -0.0936,0.01942 -0.14773,0.02077 -0.242458,0.0059 z"
         id="path506" /><path
         style="fill:#00ff00;stroke-width:0.0119215"
         d="m 45.301682,9.7180112 c 0.234178,-0.05848 0.398481,-0.215917 0.461146,-0.441904 0.0543,-0.195796 -0.0024,-0.409439 -0.153853,-0.5793919 -0.04852,-0.05449 -0.358121,-0.326714 -0.45409,-0.399306 -0.424458,-0.321082 -0.872779,-0.574778 -1.27414,-0.721008 -0.08399,-0.03059 -0.174164,-0.06382 -0.200381,-0.0738 -0.261637,-0.09969 -0.698602,-0.196254 -1.066975,-0.235797 -0.582945,-0.06258 -1.287236,-0.0094 -1.800151,0.136024 -0.49271,0.139666 -0.910592,0.319299 -1.317329,0.566319 -0.337346,0.204886 -0.812516,0.584976 -0.963742,0.770914 -0.268542,0.3301689 -0.125693,0.8177429 0.280259,0.9565939 0.153151,0.05238 0.31474,0.04022 0.462934,-0.03482 0.07706,-0.03903 0.133866,-0.08407 0.323793,-0.256781 0.461759,-0.419905 1.107788,-0.7411059 1.745641,-0.8679159 0.269567,-0.05359 0.403047,-0.0653 0.744046,-0.0653 0.340529,0 0.472507,0.0116 0.744048,0.06514 0.40055,0.07903 0.849178,0.2544889 1.206072,0.4716849 0.193934,0.118033 0.437016,0.300874 0.600782,0.451897 0.232074,0.21403 0.308283,0.251306 0.566578,0.277124 0.0065,6.56e-4 0.04947,-0.0081 0.09538,-0.01969 z"
         id="path504" /><path
         style="fill:#00ff00;stroke-width:0.0119215"
         d="m 38.905787,9.7521912 c -0.274956,-0.03355 -0.515546,-0.285446 -0.540541,-0.56595 -0.01511,-0.17009 0.03889,-0.345824 0.144574,-0.4700339 0.173921,-0.204373 0.62594,-0.566542 0.964068,-0.772402 0.164697,-0.100285 0.646067,-0.346498 0.713453,-0.364945 0.01322,-0.0035 0.0909,-0.03156 0.172869,-0.06214 0.354353,-0.132221 0.666815,-0.210523 1.049093,-0.262905 0.438807,-0.06012 1.066174,-0.05206 1.490192,0.01915 0.790296,0.132653 1.540834,0.452084 2.17985,0.927793 0.299876,0.223227 0.545418,0.448474 0.632737,0.5804119 0.07658,0.115687 0.09926,0.204373 0.09303,0.363704 -0.0059,0.148891 -0.01888,0.20084 -0.07366,0.292785 -0.126988,0.213113 -0.356802,0.337873 -0.592555,0.321665 -0.193287,-0.01322 -0.289095,-0.06438 -0.53342,-0.284523 -0.187488,-0.168931 -0.378518,-0.312367 -0.580887,-0.436175 -0.161648,-0.09891 -0.444076,-0.237037 -0.600531,-0.2937159 -0.04917,-0.0178 -0.121756,-0.04483 -0.161271,-0.06001 -0.03952,-0.01511 -0.133408,-0.04343 -0.208635,-0.06277 -0.126772,-0.03256 -0.16413,-0.04097 -0.327512,-0.07369 -0.327194,-0.06554 -0.905524,-0.06517 -1.281563,8.2e-4 -0.169875,0.02983 -0.426972,0.09837 -0.581804,0.155121 -0.08982,0.03293 -0.176699,0.06422 -0.193099,0.06956 -0.07355,0.02401 -0.365657,0.172168 -0.506665,0.257105 -0.205668,0.123886 -0.39067,0.262796 -0.607998,0.456558 -0.195769,0.174515 -0.286721,0.230375 -0.421839,0.259021 -0.08327,0.01753 -0.121566,0.01861 -0.227893,0.0057 z"
         id="path502" /><path
         style="fill:#00ff00;stroke-width:0.0119215"
         d="m 40.556918,11.270049 c 0.08664,-0.0178 0.200597,-0.09322 0.339623,-0.224656 0.269647,-0.254921 0.51858,-0.390238 0.847084,-0.460459 0.165506,-0.03536 0.484659,-0.03876 0.654701,-0.007 0.322922,0.06042 0.60537,0.206855 0.859347,0.445605 0.06856,0.06444 0.151479,0.136401 0.184251,0.159922 0.383033,0.274675 0.912119,0.01915 0.952562,-0.460106 0.01457,-0.174028 -0.05621,-0.339396 -0.218804,-0.510269 -0.554011,-0.5822458 -1.392788,-0.9208548 -2.194137,-0.8857638 -0.721764,0.03161 -1.406375,0.324009 -1.911293,0.8163198 -0.191426,0.186652 -0.262688,0.306708 -0.282885,0.476647 -0.03188,0.268083 0.13802,0.544223 0.391249,0.635898 0.07738,0.02802 0.238305,0.04432 0.300817,0.03045 0.02293,-0.0051 0.05783,-0.01268 0.07749,-0.01672 z"
         id="path500" /><path
         style="fill:#00ff00;stroke-width:0.0119215"
         d="m 40.282723,11.316769 c -0.187947,-0.0267 -0.379578,-0.17241 -0.466628,-0.354962 -0.05198,-0.108971 -0.0684,-0.201002 -0.05891,-0.329595 0.01349,-0.180988 0.08839,-0.31621 0.277429,-0.500149 0.434705,-0.4229558 0.971008,-0.6947908 1.577355,-0.7995148 0.141068,-0.02428 0.199923,-0.02781 0.476861,-0.02781 0.276933,0 0.335782,0.0035 0.476861,0.02781 0.507051,0.08758 0.954552,0.287673 1.359056,0.607698 0.169038,0.1337308 0.366943,0.3387998 0.419136,0.4342998 0.177778,0.325287 0.05322,0.72859 -0.273769,0.886503 -0.107568,0.05195 -0.203888,0.06881 -0.337864,0.05918 -0.182337,-0.01322 -0.279925,-0.06654 -0.496967,-0.27215 -0.17473,-0.165533 -0.347127,-0.27713 -0.545221,-0.352983 -0.395149,-0.151318 -0.804791,-0.151318 -1.203269,3e-6 -0.200893,0.07628 -0.3641,0.183712 -0.563707,0.3711 -0.233235,0.218938 -0.400852,0.28452 -0.640365,0.250578 z"
         id="path498" /><path
         style="fill:#00ff00;stroke-width:0.0119215"
         d="m 42.422634,13.973464 c 0.501271,-0.114365 0.879754,-0.475593 0.997879,-0.952365 0.02746,-0.110804 0.02746,-0.395551 0,-0.506364 -0.0879,-0.354838 -0.326503,-0.656459 -0.652155,-0.824446 -0.223173,-0.11512 -0.392155,-0.155579 -0.649721,-0.155579 -0.128795,0 -0.207179,0.0062 -0.280156,0.02185 -0.515227,0.111317 -0.901713,0.473761 -1.02172,0.958139 -0.02746,0.110805 -0.02746,0.395552 0,0.506364 0.0879,0.354839 0.3265,0.65646 0.652151,0.824446 0.157926,0.08146 0.294738,0.124291 0.494744,0.154824 0.07922,0.01214 0.360204,-0.0043 0.458978,-0.02697 z"
         id="path496" /><path
         style="fill:#00ff00;stroke-width:0.0119215"
         d="m 41.873311,14.013084 c -0.285451,-0.05168 -0.53919,-0.182417 -0.740173,-0.381339 -0.158546,-0.156928 -0.259181,-0.325597 -0.327617,-0.549108 -0.0301,-0.09826 -0.0325,-0.121512 -0.0325,-0.314735 0,-0.193233 0.0024,-0.216457 0.0325,-0.314733 0.06843,-0.223496 0.169066,-0.392187 0.327617,-0.549107 0.424084,-0.419732 1.086118,-0.521862 1.623301,-0.250416 0.336165,0.169875 0.565747,0.441678 0.675314,0.799529 0.0301,0.09829 0.0325,0.121512 0.0325,0.314732 0,0.193234 -0.0024,0.216457 -0.0325,0.314736 -0.151129,0.493597 -0.551215,0.839445 -1.07719,0.931169 -0.124669,0.02185 -0.359162,0.02131 -0.481252,-7.23e-4 z"
         id="path494" /></g><path
       style="fill:none;stroke:#000000;stroke-width:1.765;stroke-linecap:butt;stroke-linejoin:miter;stroke-dasharray:none;stroke-opacity:1;marker-end:url(#Arrow5)"
       d="m 2.332745,65.429489 h 9.769902"
       id="path1388" /><path
       style="fill:none;stroke:#0000ff;stroke-width:1.765;stroke-linecap:butt;stroke-linejoin:miter;stroke-dasharray:none;stroke-opacity:1;marker-end:url(#Arrow5)"
       d="m 80.695701,66.386458 h 9.769901"
       id="path1390" /></g></svg>
